^C:\USERS\MARIN\DESKTOP\TATETI EN VIVO\TATETI\TATETI\SOURCE.CPP
C:\USERS\MARIN\DESKTOP\TATETI EN VIVO\TATETI\TATETI\DEBUG\VC142.PDB
C:\USERS\MARIN\DESKTOP\TATETI EN VIVO\TATETI\TATETI\DEBUG\VC142.IDB
C:\USERS\MARIN\DESKTOP\TATETI EN VIVO\TATETI\TATETI\DEBUG\SOURCE.OBJ
